{
	"cache": "/var/cache/apt/",
	"debootstrap": ["arm64", "http://ports.ubuntu.com/ubuntu-ports"],
	"post": ["ubuntu", "debian"],
	"script": [
		"wget https://download.opensuse.org/repositories/home:/Azkali:/Tegra:/Xavier/xUbuntu_20.04/Release.key",
		"apt-key add Release.key && rm Release.key",
		"echo 'deb https://download.opensuse.org/repositories/home:/Azkali:/Tegra:/Xavier/xUbuntu_20.04/ ./' > /etc/apt/sources.list.d/99-obs.list"
	]
}
