{
	"cache": "/var/cache/apt/",
	"url": "https://archive.org/download/twister-osarmbian-v-2-0-3.img/TwisterOSArmbianV2-0-3.img.xz",
	"post": ["ubuntu"],
	"script": [
		"export DEBIAN_FRONTEND=noninteractive",
		"yes | unminimize",
		"echo TEGRA_CHIPID 0x21 >> /etc/nv_boot_control.conf",
		"echo 'force-overwrite' > /etc/dpkg/dpkg.cfg.d/nvidia-override",
		"mkdir -p /opt/nvidia/l4t-packages/ /etc/apt/preferences.d/",
		"touch /opt/nvidia/l4t-packages/.nv-l4t-disable-boot-fw-update-in-preinstall",
		"echo '# Disallow L4T 32.4.x\nPackage: nvidia-l4t-*\nPin: version 32.4.*\nPin-Priority: -1\n\n# Disallow L4T 32.5.x\nPackage: nvidia-l4t-*\nPin: version 32.5.*\nPin-Priority: -1' > /etc/apt/preferences.d/00-switch-bsp-restrictions",
		"echo 'Package: *\nPin: origin newrepo.switchroot.org\nPin-Priority: -1\n\nPackage: joycond*\nPin: origin 'newrepo.switchroot.org'\nPin-Priority: 99' > /etc/apt/preferences.d/restrict-switchroot",
		"echo 'deb https://repo.download.nvidia.com/jetson/common r32 main' > /etc/apt/sources.list.d/nvidia-l4t-apt-source.list",
		"echo 'deb https://repo.download.nvidia.com/jetson/t210 r32 main' >> /etc/apt/sources.list.d/nvidia-l4t-apt-source.list",
		"echo 'deb https://newrepo.switchroot.org/ switchroot unstable' >> /etc/apt/sources.list.d/99-switchroot-newrepo.list",
		"apt-key adv --fetch-key https://repo.download.nvidia.com/jetson/jetson-ota-public.asc",
		"wget https://download.opensuse.org/repositories/home:/Azkali:/Tegra:/Icosa/xUbuntu_20.04/Release.key",
		"apt-key add Release.key && rm Release.key",
		"echo 'deb https://download.opensuse.org/repositories/home:/Azkali:/Tegra:/Icosa/xUbuntu_20.04/ ./' > /etc/apt/sources.list.d/99-obs.list",
		"wget https://newrepo.switchroot.org/pubkey && apt-key add pubkey && rm pubkey",
		"wget http://ports.ubuntu.com/pool/main/libf/libffi/libffi6_3.2.1-8_arm64.deb",
		"dpkg -i libffi6_3.2.1-8_arm64.deb && rm *.deb",
		"apt update -y && apt --fix-broken -y install",
		"apt-get install -y onboard openssh-server systemd wget gnupg nano sudo linux-firmware less bsdutils locales curl bsdutils gir1.2-appindicator3-0.1 inetutils-ping xxd nvidia-l4t-core nvidia-l4t-3d-core nvidia-l4t-camera nvidia-l4t-init nvidia-l4t-x11 nvidia-l4t-multimedia nvidia-l4t-multimedia-utils nvidia-l4t-gstreamer nvidia-l4t-firmware nvidia-l4t-xusb-firmware nvidia-l4t-configs nvidia-l4t-tools nvidia-l4t-cuda nvidia-l4t-wayland linux-switch linux-switch-overlays linux-switch-headers linux-switch-modules switch-nvpmodel switch-device-tree switch-initramfs switch-wireless-nvram switch-xorg-conf switch-alsa-ucm2 switch-dock-handler switch-dconf-customizations switch-r2p-service switch-bluetooth-service switch-touch-rules switch-lightdm-conf switch-bootfiles joycond || true",
		"apt clean -y",
		"echo options tegra-udrm modeset=1 > /etc/modprobe.d/tegra-wayland.conf",
		"ln -sfn /usr/lib/aarch64-linux-gnu/tegra/libnvgbm.so /usr/lib/aarch64-linux-gnu/libgbm.so.1",
		"ln -sfn /dev/null /etc/udev/rules.d/61-gdm.rules",
		"systemctl disable nvargus-daemon",
		"sed 's/#ADD_EXTRA_GROUPS=1/ADD_EXTRA_GROUPS=1/g' -i /etc/adduser.conf",
		"echo -e 'MOZ_USE_XINPUT2=1\nMOZ_ENABLE_WAYLAND=1' >> /etc/environment",
		"sed 's/MODE=\"0660\"/MODE=\"0777\"/g' -i /etc/udev/rules.d/99-tegra-devices.rules"
	]
}
